{
  "total": 3,
  "page": 1,
  "per_page": 2,
  "has_more": true,
  "next_url": "https://yournextmp.popit.mysociety.org/api/v0.1/organizations?page=2",
  "result": [
    {
      "id": "party:52",
      "proxy_image":
  "https://yournextmp.popit.mysociety.org/image-proxy/https%3A%2F%2Fyournextmp.popit.mysociety.org%2Forganizations%2Fparty%3A52%2Fimage%2F54ce624f95590a10203202ff",
      "image":
  "https://yournextmp.popit.mysociety.org/organizations/party:52/image/54ce624f95590a10203202ff",
      "html_url":
  "https://yournextmp.popit.mysociety.org/organizations/party:52",
      "url":
  "https://yournextmp.popit.mysociety.org/api/v0.1/organizations/party:52",
      "classification": "Party",
      "dissolution_date": "9999-12-31",
      "founding_date": "1999-01-14",
      "images": [
        {
          "proxy_url":
  "https://yournextmp.popit.mysociety.org/image-proxy/https%3A%2F%2Fyournextmp.popit.mysociety.org%2Forganizations%2Fparty%3A52%2Fimage%2F54ce624f95590a10203202ff",
          "url":
  "https://yournextmp.popit.mysociety.org/organizations/party:52/image/54ce624f95590a10203202ff",
          "mime_type": "image/gif",
          "md5sum": "0c130ed06dfd2e113b3e08a6e8a1730f",
          "notes": "Emblem 1 Conservatives Emblem",
          "source": "The Electoral Commission",
          "_id": {
            "_bsontype": "ObjectID",
            "id": "1032984170329481701324X"
          },
          "created": "2015-02-01T17:28:47.208Z",
          "local_path": "54/ce/54ce624f95590a10203202ff",
          "local_path_base": "54/ce/54ce624f95590a10203202ff",
          "id": "54ce624f95590a10203202ff",
          "start_date": null,
          "end_date": null,
          "birth_date": null,
          "death_date": null,
          "founding_date": null,
          "dissolution_date": null
        },
        {
          "proxy_url":
  "https://yournextmp.popit.mysociety.org/image-proxy/https%3A%2F%2Fyournextmp.popit.mysociety.org%2Forganizations%2Fparty%3A52%2Fimage%2F54ce624f95590a1020320300",
          "url":
  "https://yournextmp.popit.mysociety.org/organizations/party:52/image/54ce624f95590a1020320300",
          "dissolution_date": null,
          "founding_date": null,
          "death_date": null,
          "birth_date": null,
          "end_date": null,
          "start_date": null,
          "id": "54ce624f95590a1020320300",
          "local_path_base": "54/ce/54ce624f95590a1020320300",
          "local_path": "54/ce/54ce624f95590a1020320300",
          "created": "2015-02-01T17:28:47.442Z",
          "_id": {
            "_bsontype": "ObjectID",
            "id": "192347098705282039582"
          },
          "source": "The Electoral Commission",
          "notes": "Emblem 2 Scottish Emblem",
          "md5sum": "b8c4ca17b07fbb88763b87ea93c69526",
          "mime_type": "image/jpeg"
        },
        {
          "proxy_url":
  "https://yournextmp.popit.mysociety.org/image-proxy/https%3A%2F%2Fyournextmp.popit.mysociety.org%2Forganizations%2Fparty%3A52%2Fimage%2F54ce625095590a1020320301",
          "url":
  "https://yournextmp.popit.mysociety.org/organizations/party:52/image/54ce625095590a1020320301",
          "mime_type": "image/gif",
          "md5sum": "fbbb72d2ef20fcc80f7071b13cb733f3",
          "notes": "Emblem 3 Welsh Emblem",
          "source": "The Electoral Commission",
          "_id": {
            "_bsontype": "ObjectID",
            "id": "12309283740923"
          },
          "created": "2015-02-01T17:28:48.475Z",
          "local_path": "54/ce/54ce625095590a1020320301",
          "local_path_base": "54/ce/54ce625095590a1020320301",
          "id": "54ce625095590a1020320301",
          "start_date": null,
          "end_date": null,
          "birth_date": null,
          "death_date": null,
          "founding_date": null,
          "dissolution_date": null
        }
      ],
      "name": "Conservative Party",
      "register": "Great Britain",
      "slug": "conservative-party",
      "posts": [],
      "memberships": [],
      "links": [],
      "contact_details": [],
      "identifiers": [
        {
          "id": "54ce9167659d69102072f2f0",
          "scheme": "electoral-commission",
          "identifier": "PP52"
        }
      ],
      "other_names": []
    },
    {
      "id": "party:53",
      "proxy_image":
  "https://yournextmp.popit.mysociety.org/image-proxy/https%3A%2F%2Fyournextmp.popit.mysociety.org%2Forganizations%2Fparty%3A53%2Fimage%2F54ce625795590a102032030b",
      "image":
  "https://yournextmp.popit.mysociety.org/organizations/party:53/image/54ce625795590a102032030b",
      "html_url":
  "https://yournextmp.popit.mysociety.org/organizations/party:53",
      "url":
  "https://yournextmp.popit.mysociety.org/api/v0.1/organizations/party:53",
      "classification": "Party",
      "dissolution_date": "9999-12-31",
      "founding_date": "1999-01-14",
      "images": [
        {
          "proxy_url":
  "https://yournextmp.popit.mysociety.org/image-proxy/https%3A%2F%2Fyournextmp.popit.mysociety.org%2Forganizations%2Fparty%3A53%2Fimage%2F54ce625795590a102032030b",
          "url":
  "https://yournextmp.popit.mysociety.org/organizations/party:53/image/54ce625795590a102032030b",
          "mime_type": "image/gif",
          "md5sum": "e4a285716b07984e9f346e7e0686851a",
          "notes": "Rose with the word Labour underneath",
          "source": "The Electoral Commission",
          "_id": {
            "_bsontype": "ObjectID",
            "id": "1239109381023812"
          },
          "created": "2015-02-01T17:28:55.521Z",
          "local_path": "54/ce/54ce625795590a102032030b",
          "local_path_base": "54/ce/54ce625795590a102032030b",
          "id": "54ce625795590a102032030b",
          "start_date": null,
          "end_date": null,
          "birth_date": null,
          "death_date": null,
          "founding_date": null,
          "dissolution_date": null
        },
        {
          "proxy_url":
  "https://yournextmp.popit.mysociety.org/image-proxy/https%3A%2F%2Fyournextmp.popit.mysociety.org%2Forganizations%2Fparty%3A53%2Fimage%2F54ce625795590a102032030c",
          "url":
  "https://yournextmp.popit.mysociety.org/organizations/party:53/image/54ce625795590a102032030c",
          "dissolution_date": null,
          "founding_date": null,
          "death_date": null,
          "birth_date": null,
          "end_date": null,
          "start_date": null,
          "id": "54ce625795590a102032030c",
          "local_path_base": "54/ce/54ce625795590a102032030c",
          "local_path": "54/ce/54ce625795590a102032030c",
          "created": "2015-02-01T17:28:55.812Z",
          "_id": {
            "_bsontype": "ObjectID",
            "id": "203870239487024"
          },
          "source": "The Electoral Commission",
          "notes": "Emblem for use in Wales",
          "md5sum": "279d96424d7bcd4fb22bf9221cfae2cc",
          "mime_type": "image/gif"
        },
        {
          "proxy_url":
  "https://yournextmp.popit.mysociety.org/image-proxy/https%3A%2F%2Fyournextmp.popit.mysociety.org%2Forganizations%2Fparty%3A53%2Fimage%2F54ce625895590a102032030d",
          "url":
  "https://yournextmp.popit.mysociety.org/organizations/party:53/image/54ce625895590a102032030d",
          "mime_type": "image/gif",
          "md5sum": "d1ca719ef233f6aee6ac53051ee934cd",
          "notes": "Emblem for use in Scotland",
          "source": "The Electoral Commission",
          "_id": {
            "_bsontype": "ObjectID",
            "id": "9070548720387023187"
          },
          "created": "2015-02-01T17:28:56.102Z",
          "local_path": "54/ce/54ce625895590a102032030d",
          "local_path_base": "54/ce/54ce625895590a102032030d",
          "id": "54ce625895590a102032030d",
          "start_date": null,
          "end_date": null,
          "birth_date": null,
          "death_date": null,
          "founding_date": null,
          "dissolution_date": null
        }
      ],
      "name": "Labour Party",
      "register": "Great Britain",
      "slug": "labour-party",
      "posts": [],
      "memberships": [],
      "links": [],
      "contact_details": [],
      "identifiers": [
        {
          "id": "54ce916a659d69102072f304",
          "scheme": "electoral-commission",
          "identifier": "PP53"
        }
      ],
      "other_names": []
    }
  ]
}
